{
    "Envelope": {
        "Body": {
            "FindLearnerByCentreResponse": {
                "FindLearnerByCentreResult": {
                    "CentreNumber": "24220",
                    "Learners": {
                        "Learner": [{
                                "DateOfBirth": "1992-05-13T00:00:00",
                                "ExternalLearnerReferences": {
                                    "ExternalLearnerReference": {
                                        "UCI": "242200053016V",
                                        "CandidateNumber": "3016"
                                    }
                                },
                                "FamilyName": "BENSTED",
                                "Gender": "Female",
                                "GivenName": "SAMANTHA K",
                                "InternalLearnerId": "86058D57F5198A8C6B9CBD1E5CCA352E",
                                "IsEditable": "false"

                            }, {
                                "DateOfBirth": "1992-01-24T00:00:00",
                                "ExternalLearnerReferences": {
                                    "ExternalLearnerReference": {
                                        "UCI": "242200053157X",
                                        "CandidateNumber": "3157"
                                    }
                                },
                                "FamilyName": "TOPHAM",
                                "Gender": "Male",
                                "GivenName": "SAMUEL",
                                "InternalLearnerId": "A1C49E63F91580ED204F084991D30A99",
                                "IsEditable": "false"

                            },
                            {
                                "DateOfBirth": "1993-02-09T00:00:00",
                                "ExternalLearnerReferences": {
                                    "ExternalLearnerReference": {
                                        "UCI": "242200064025W",
                                        "CandidateNumber": "4025"
                                    }
                                },
                                "FamilyName": "BROWN",
                                "Gender": "Female",
                                "GivenName": "SARAH L",
                                "InternalLearnerId": "9BA694D8C17376E61D98EF10E1679F27",
                                "IsEditable": "false"
                            }]



                    }
                }
            }
        }
    }
}